<?xml version="1.0" encoding="utf-8"?>
<!-- Generator: Adobe Illustrator 19.0.0, SVG Export Plug-In . SVG Version: 6.00 Build 0)  -->
<svg version="1.1" id="Capa_1" xmlns="http://www.w3.org/2000/svg" xmlns:xlink="http://www.w3.org/1999/xlink" x="0px" y="0px"
	 viewBox="0 0 960 560" style="enable-background:new 0 0 960 560;" xml:space="preserve">
<style type="text/css">
	.st0{stroke:#3F03FF;stroke-width:8.1554;stroke-miterlimit:10;}
	.st1{opacity:0.18;fill:#B2368A;}
	.st2{fill:#B2368A;}
	.st3{fill:none;stroke:#F9F2F8;stroke-width:2.5921;stroke-miterlimit:10;}
	.st4{fill:url(#XMLID_16_);stroke:url(#XMLID_17_);stroke-width:3.8182;stroke-miterlimit:10;}
	.st5{fill:url(#XMLID_18_);stroke:url(#XMLID_19_);stroke-width:3.8182;stroke-miterlimit:10;}
	.st6{fill:url(#XMLID_20_);stroke:url(#XMLID_21_);stroke-width:3.8182;stroke-miterlimit:10;}
	.st7{fill:url(#XMLID_22_);stroke:url(#XMLID_23_);stroke-width:3.8182;stroke-miterlimit:10;}
	.st8{fill:url(#XMLID_24_);stroke:url(#XMLID_25_);stroke-width:3.8182;stroke-miterlimit:10;}
	.st9{fill:#FF18E1;}
</style>
</svg>
